{
  "title": "Mathematical Structures",
  "subtitle": "Formalizing abstract structures by classes and objects",
  "version": "0.0.2",
  "authors": ["Xie Yuheng"],
  "date": "2021-10-20",
  "src": "src"
}
